11 Machine Learning | Data Analysis with R for Social Scientists
…
We can now compare this linear regression with additional variables to our
baseline from above. We actually did improve but only very little. The \(R^2\) is
about \(2\%\) higher and the RMSE about \(0.01\) lower compared to the baseline.
That is nice but not the big improvement we would have hoped for.

Before we move on, further trying to improve our model, we should quickly learn
how to access the predictions the model actually made. There is another handy
function in tidymodels that does just that, collect_predictions().

collect_predictions(lr_m)

## # A tibble: 6,978 × 5
##    id     .pred  .row salary_log .config             
##    <chr>  <dbl> <int>      <dbl> <chr>               
##  1 Fold01  13.8     7       12.8 Preprocessor1_Model1
##  2 Fold01  13.3    22       12.6 Preprocessor1_Model1
##  3 Fold01  13.9    40       15.0 Preprocessor1_Model1
##  4 Fold01  14.1    53       13.8 Preprocessor1_Model1
##  5 Fold01  13.7    55       14.7 Preprocessor1_Model1
##  6 Fold01  14.1    65       14.7 Preprocessor1_Model1
##  7 Fold01  12.2    81       12.2 Preprocessor1_Model1
##  8 Fold01  12.8    83       14.7 Preprocessor1_Model1
##  9 Fold01  14.8    91       15.7 Preprocessor1_Model1
## 10 Fold01  14.9   108       14.3 Preprocessor1_Model1
## # ℹ 6,968 more rows
…
