11 Prediction - Theory | Data Analysis with R for Social Scientists
…
# new tidyverse way to get predicted values
library(broom)

# broom package has nice features to work with models

# tidy() converts the model output into a dataframe, makes it easy to process further, e.g. make graphs etc.
tidy(model1)

## # A tibble: 25 × 5
>>>>>>> Stashed changes
##    term                estimate std.error statistic  p.value
##    <chr>                  <dbl>     <dbl>     <dbl>    <dbl>
##  1 (Intercept)         -568370.    29308.    -19.4  3.15e-82
##  2 career_PTS            53791.      731.     73.6  0       
##  3 position_recForward -140645.    12779.    -11.0  5.24e-28
##  4 position_recGuard   -208234.    12166.    -17.1  9.89e-65
##  5 position_recMixed   -103661.    12104.     -8.56 1.26e-17
##  6 season_start1999      29357.    22884.      1.28 2.00e- 1
##  7 season_start2000      77209.    23559.      3.28 1.05e- 3
##  8 season_start2001     106436.    23625.      4.51 6.71e- 6
##  9 season_start2002     130348.    23627.      5.52 3.54e- 8
## 10 season_start2003     135221.    23648.      5.72 1.11e- 8
<<<<<<< Updated upstream
## # i 15 more rows
…
